{
	"bases": [
		[5, 5],
		[5, 6],
		[5, 4],
		[6, 5],
		[6, 6],
		[6, 4],
		[4, 5],
		[4, 6],
		[4, 4]
	],
	"paths": [
		[0, 0],
		[1, 0],
		[2, 0],
		[3, 0],
		[4, 0],
		[5, 0],
		[6, 0],
		[7, 0],
		[7, 1],
		[7, 2],
		[6, 2],
		[5, 2],
		[4, 2],
		[4, 3],

		[10, 0],
		[10, 1],
		[10, 2],
		[10, 3],
		[10, 4],
		[10, 5],
		[10, 6],
		[10, 7],
		[9, 7],
		[8, 7],
		[8, 6],
		[8, 5],
		[8, 4],
		[7, 4],

		[0, 10],
		[0, 9],
		[0, 8], 
		[0, 7],
		[0, 6],
		[0, 5],
		[0, 4],
		[0, 3],
		[1, 3],
		[2, 3],
		[2, 4],
		[2, 5],
		[2, 6],
		[3, 6],

		[10, 10],
		[9, 10],
		[8, 10],
		[7, 10],
		[6, 10],
		[5, 10],
		[4, 10],
		[3, 10],
		[3, 9],
		[3, 8],
		[4, 8],
		[5, 8],
		[6, 8],
		[6, 7]
	],
	"width": 11,
	"height": 11
}			
